0,688.4,1027.1,1548.9,791.2,4055.4,0,HasContract? 1 = True,ContractID,ContractAgreedPrice,ContractAge,WPPartnerID,WSMaxSeason
1,0.1,1.9,1.9,0.1,4,0.9,0,0,0,0,0,1.9
2,3.6,3.6,3.6,3.6,14.4,0.9,0,0,0,0,0,3.6
3,495,280,280,495,1550,0.9,0,0,0,0,0,495
4,8.3,32.3,32.3,8.3,81.2,0.6,0,0,0,0,0,32.3
5,68.6,35.4,35.4,68.6,208,0.9,0,1,15,0,101,68.6
6,0.1,80.1,320.1,300.1,700.4,0.9,0,0,0,0,0,320.1
7,0,3.4,13.6,0,17,0.9,0,2,14,0,101,13.6
8,43,43,43,43,172,0.9,0,0,0,0,0,43
9,2.1,351.1,351.1,2.1,706.4,0.55,0,3,13,1,101,351.1
10,0.3,0.3,0.3,0.3,1.2,0.55,0,0,0,0,0,0.3
11,0,6.4,25.6,0,32,0.9,0,0,0,0,0,25.6
12,66,34,52,168,320,0.9,0,0,0,0,0,168
13,20,95,95,20.9,230.9,0.9,0,0,0,0,0,95
14,78.5,78.5,78.5,78.5,314,0.9,0,0,0,0,0,78.5
15,1,1,1,1,4,0.9,0,0,0,0,0,1
16,18.7,18.7,18.7,18.7,74.8,0.9,0,0,0,0,0,18.7
